%YAML 1.1
%TAG !u! tag:unity3d.com,2011:
--- !u!114 &-8021794454375176925
MonoBehaviour:
  m_ObjectHideFlags: 3
  m_CorrespondingSourceObject: {fileID: 0}
  m_PrefabInstance: {fileID: 0}
  m_PrefabAsset: {fileID: 0}
  m_GameObject: {fileID: 0}
  m_Enabled: 1
  m_EditorHideFlags: 0
  m_Script: {fileID: 11500000, guid: d65e486e4de6e5448a8fbb43dc8756a0, type: 3}
  m_Name: Grain
  m_EditorClassIdentifier: 
  active: 1
  enabled:
    overrideState: 1
    value: 1
  colored:
    overrideState: 0
    value: 1
  intensity:
    overrideState: 1
    value: 0
  size:
    overrideState: 1
    value: 1.41
  lumContrib:
    overrideState: 0
    value: 0.8
--- !u!114 &-6643271617664280835
MonoBehaviour:
  m_ObjectHideFlags: 3
  m_CorrespondingSourceObject: {fileID: 0}
  m_PrefabInstance: {fileID: 0}
  m_PrefabAsset: {fileID: 0}
  m_GameObject: {fileID: 0}
  m_Enabled: 1
  m_EditorHideFlags: 0
  m_Script: {fileID: 11500000, guid: 48a79b01ea5641d4aa6daa2e23605641, type: 3}
  m_Name: Bloom
  m_EditorClassIdentifier: 
  active: 1
  enabled:
    overrideState: 1
    value: 1
  intensity:
    overrideState: 1
    value: 1.1
  threshold:
    overrideState: 1
    value: 0.9
  softKnee:
    overrideState: 1
    value: 0.5
  clamp:
    overrideState: 1
    value: 65472
  diffusion:
    overrideState: 1
    value: 6.66
  anamorphicRatio:
    overrideState: 1
    value: 0
  color:
    overrideState: 1
    value: {r: 1, g: 1, b: 1, a: 1}
  fastMode:
    overrideState: 1
    value: 0
  dirtTexture:
    overrideState: 0
    value: {fileID: 0}
    defaultState: 1
  dirtIntensity:
    overrideState: 1
    value: 0
--- !u!114 &-4904595906486863053
MonoBehaviour:
  m_ObjectHideFlags: 3
  m_CorrespondingSourceObject: {fileID: 0}
  m_PrefabInstance: {fileID: 0}
  m_PrefabAsset: {fileID: 0}
  m_GameObject: {fileID: 0}
  m_Enabled: 1
  m_EditorHideFlags: 0
  m_Script: {fileID: 11500000, guid: adb84e30e02715445aeb9959894e3b4d, type: 3}
  m_Name: ColorGrading
  m_EditorClassIdentifier: 
  active: 1
  enabled:
    overrideState: 1
    value: 1
  gradingMode:
    overrideState: 0
    value: 1
  externalLut:
    overrideState: 0
    value: {fileID: 0}
    defaultState: 1
  tonemapper:
    overrideState: 1
    value: 2
  toneCurveToeStrength:
    overrideState: 0
    value: 0
  toneCurveToeLength:
    overrideState: 0
    value: 0.5
  toneCurveShoulderStrength:
    overrideState: 0
    value: 0
  toneCurveShoulderLength:
    overrideState: 0
    value: 0.5
  toneCurveShoulderAngle:
    overrideState: 0
    value: 0
  toneCurveGamma:
    overrideState: 0
    value: 1
  ldrLut:
    overrideState: 0
    value: {fileID: 0}
    defaultState: 4
  ldrLutContribution:
    overrideState: 0
    value: 1
  temperature:
    overrideState: 0
    value: 0
  tint:
    overrideState: 0
    value: 0
  colorFilter:
    overrideState: 0
    value: {r: 1, g: 1, b: 1, a: 1}
  hueShift:
    overrideState: 0
    value: 0
  saturation:
    overrideState: 1
    value: 1.2
  brightness:
    overrideState: 0
    value: 0
  postExposure:
    overrideState: 1
    value: 0.5
  contrast:
    overrideState: 1
    value: 1
  mixerRedOutRedIn:
    overrideState: 0
    value: 200
  mixerRedOutGreenIn:
    overrideState: 0
    value: -200
  mixerRedOutBlueIn:
    overrideState: 0
    value: -200
  mixerGreenOutRedIn:
    overrideState: 0
    value: 0
  mixerGreenOutGreenIn:
    overrideState: 0
    value: -200
  mixerGreenOutBlueIn:
    overrideState: 0
    value: 0
  mixerBlueOutRedIn:
    overrideState: 0
    value: 200
  mixerBlueOutGreenIn:
    overrideState: 0
    value: 0
  mixerBlueOutBlueIn:
    overrideState: 0
    value: -200
  lift:
    overrideState: 1
    value: {x: 1, y: 0.8392699, z: 0.82940894, w: 0.0005071887}
  gamma:
    overrideState: 1
    value: {x: 0.95871305, y: 0.93722564, z: 1, w: 0}
  gain:
    overrideState: 1
    value: {x: 1, y: 0.91679776, z: 0.95804507, w: 0.095465414}
  masterCurve:
    overrideState: 0
    value:
      curve:
        serializedVersion: 2
        m_Curve:
        - serializedVersion: 3
          time: 0
          value: 0
          inSlope: 1
          outSlope: 1
          tangentMode: 0
          weightedMode: 0
          inWeight: 0
          outWeight: 0
        - serializedVersion: 3
          time: 1
          value: 1
          inSlope: 1
          outSlope: 1
          tangentMode: 0
          weightedMode: 0
          inWeight: 0
          outWeight: 0
        m_PreInfinity: 2
        m_PostInfinity: 2
        m_RotationOrder: 4
      m_Loop: 0
      m_ZeroValue: 0
      m_Range: 1
      cachedData:
      - 0
      - 0.0078125
      - 0.015625
      - 0.0234375
      - 0.03125
      - 0.0390625
      - 0.046875
      - 0.0546875
      - 0.0625
      - 0.0703125
      - 0.078125
      - 0.0859375
      - 0.09375
      - 0.1015625
      - 0.109375
      - 0.1171875
      - 0.125
      - 0.1328125
      - 0.140625
      - 0.1484375
      - 0.15625
      - 0.1640625
      - 0.171875
      - 0.1796875
      - 0.1875
      - 0.1953125
      - 0.203125
      - 0.2109375
      - 0.21875
      - 0.2265625
      - 0.234375
      - 0.2421875
      - 0.25
      - 0.2578125
      - 0.265625
      - 0.2734375
      - 0.28125
      - 0.2890625
      - 0.296875
      - 0.3046875
      - 0.3125
      - 0.3203125
      - 0.328125
      - 0.3359375
      - 0.34375
      - 0.3515625
      - 0.359375
      - 0.3671875
      - 0.375
      - 0.3828125
      - 0.390625
      - 0.3984375
      - 0.40625
      - 0.4140625
      - 0.421875
      - 0.4296875
      - 0.4375
      - 0.4453125
      - 0.453125
      - 0.4609375
      - 0.46875
      - 0.4765625
      - 0.484375
      - 0.4921875
      - 0.5
      - 0.5078125
      - 0.515625
      - 0.5234375
      - 0.53125
      - 0.5390625
      - 0.546875
      - 0.5546875
      - 0.5625
      - 0.5703125
      - 0.578125
      - 0.5859375
      - 0.59375
      - 0.6015625
      - 0.609375
      - 0.6171875
      - 0.625
      - 0.6328125
      - 0.640625
      - 0.6484375
      - 0.65625
      - 0.6640625
      - 0.671875
      - 0.6796875
      - 0.6875
      - 0.6953125
      - 0.703125
      - 0.7109375
      - 0.71875
      - 0.7265625
      - 0.734375
      - 0.7421875
      - 0.75
      - 0.7578125
      - 0.765625
      - 0.7734375
      - 0.78125
      - 0.7890625
      - 0.796875
      - 0.8046875
      - 0.8125
      - 0.8203125
      - 0.828125
      - 0.8359375
      - 0.84375
      - 0.8515625
      - 0.859375
      - 0.8671875
      - 0.875
      - 0.8828125
      - 0.890625
      - 0.8984375
      - 0.90625
      - 0.9140625
      - 0.921875
      - 0.9296875
      - 0.9375
      - 0.9453125
      - 0.953125
      - 0.9609375
      - 0.96875
      - 0.9765625
      - 0.984375
      - 0.9921875
  redCurve:
    overrideState: 0
    value:
      curve:
        serializedVersion: 2
        m_Curve:
        - serializedVersion: 3
          time: 0
          value: 0
          inSlope: 1
          outSlope: 1
          tangentMode: 0
          weightedMode: 0
          inWeight: 0
          outWeight: 0
        - serializedVersion: 3
          time: 1
          value: 1
          inSlope: 1
          outSlope: 1
          tangentMode: 0
          weightedMode: 0
          inWeight: 0
          outWeight: 0
        m_PreInfinity: 2
        m_PostInfinity: 2
        m_RotationOrder: 4
      m_Loop: 0
      m_ZeroValue: 0
      m_Range: 1
      cachedData:
      - 0
      - 0.0078125
      - 0.015625
      - 0.0234375
      - 0.03125
      - 0.0390625
      - 0.046875
      - 0.0546875
      - 0.0625
      - 0.0703125
      - 0.078125
      - 0.0859375
      - 0.09375
      - 0.1015625
      - 0.109375
      - 0.1171875
      - 0.125
      - 0.1328125
      - 0.140625
      - 0.1484375
      - 0.15625
      - 0.1640625
      - 0.171875
      - 0.1796875
      - 0.1875
      - 0.1953125
      - 0.203125
      - 0.2109375
      - 0.21875
      - 0.2265625
      - 0.234375
      - 0.2421875
      - 0.25
      - 0.2578125
      - 0.265625
      - 0.2734375
      - 0.28125
      - 0.2890625
      - 0.296875
      - 0.3046875
      - 0.3125
      - 0.3203125
      - 0.328125
      - 0.3359375
      - 0.34375
      - 0.3515625
      - 0.359375
      - 0.3671875
      - 0.375
      - 0.3828125
      - 0.390625
      - 0.3984375
      - 0.40625
      - 0.4140625
      - 0.421875
      - 0.4296875
      - 0.4375
      - 0.4453125
      - 0.453125
      - 0.4609375
      - 0.46875
      - 0.4765625
      - 0.484375
      - 0.4921875
      - 0.5
      - 0.5078125
      - 0.515625
      - 0.5234375
      - 0.53125
      - 0.5390625
      - 0.546875
      - 0.5546875
      - 0.5625
      - 0.5703125
      - 0.578125
      - 0.5859375
      - 0.59375
      - 0.6015625
      - 0.609375
      - 0.6171875
      - 0.625
      - 0.6328125
      - 0.640625
      - 0.6484375
      - 0.65625
      - 0.6640625
      - 0.671875
      - 0.6796875
      - 0.6875
      - 0.6953125
      - 0.703125
      - 0.7109375
      - 0.71875
      - 0.7265625
      - 0.734375
      - 0.7421875
      - 0.75
      - 0.7578125
      - 0.765625
      - 0.7734375
      - 0.78125
      - 0.7890625
      - 0.796875
      - 0.8046875
      - 0.8125
      - 0.8203125
      - 0.828125
      - 0.8359375
      - 0.84375
      - 0.8515625
      - 0.859375
      - 0.8671875
      - 0.875
      - 0.8828125
      - 0.890625
      - 0.8984375
      - 0.90625
      - 0.9140625
      - 0.921875
      - 0.9296875
      - 0.9375
      - 0.9453125
      - 0.953125
      - 0.9609375
      - 0.96875
      - 0.9765625
      - 0.984375
      - 0.9921875
  greenCurve:
    overrideState: 0
    value:
      curve:
        serializedVersion: 2
        m_Curve:
        - serializedVersion: 3
          time: 0
          value: 0
          inSlope: 1
          outSlope: 1
          tangentMode: 0
          weightedMode: 0
          inWeight: 0
          outWeight: 0
        - serializedVersion: 3
          time: 1
          value: 1
          inSlope: 1
          outSlope: 1
          tangentMode: 0
          weightedMode: 0
          inWeight: 0
          outWeight: 0
        m_PreInfinity: 2
        m_PostInfinity: 2
        m_RotationOrder: 4
      m_Loop: 0
      m_ZeroValue: 0
      m_Range: 1
      cachedData:
      - 0
      - 0.0078125
      - 0.015625
      - 0.0234375
      - 0.03125
      - 0.0390625
      - 0.046875
      - 0.0546875
      - 0.0625
      - 0.0703125
      - 0.078125
      - 0.0859375
      - 0.09375
      - 0.1015625
      - 0.109375
      - 0.1171875
      - 0.125
      - 0.1328125
      - 0.140625
      - 0.1484375
      - 0.15625
      - 0.1640625
      - 0.171875
      - 0.1796875
      - 0.1875
      - 0.1953125
      - 0.203125
      - 0.2109375
      - 0.21875
      - 0.2265625
      - 0.234375
      - 0.2421875
      - 0.25
      - 0.2578125
      - 0.265625
      - 0.2734375
      - 0.28125
      - 0.2890625
      - 0.296875
      - 0.3046875
      - 0.3125
      - 0.3203125
      - 0.328125
      - 0.3359375
      - 0.34375
      - 0.3515625
      - 0.359375
      - 0.3671875
      - 0.375
      - 0.3828125
      - 0.390625
      - 0.3984375
      - 0.40625
      - 0.4140625
      - 0.421875
      - 0.4296875
      - 0.4375
      - 0.4453125
      - 0.453125
      - 0.4609375
      - 0.46875
      - 0.4765625
      - 0.484375
      - 0.4921875
      - 0.5
      - 0.5078125
      - 0.515625
      - 0.5234375
      - 0.53125
      - 0.5390625
      - 0.546875
      - 0.5546875
      - 0.5625
      - 0.5703125
      - 0.578125
      - 0.5859375
      - 0.59375
      - 0.6015625
      - 0.609375
      - 0.6171875
      - 0.625
      - 0.6328125
      - 0.640625
      - 0.6484375
      - 0.65625
      - 0.6640625
      - 0.671875
      - 0.6796875
      - 0.6875
      - 0.6953125
      - 0.703125
      - 0.7109375
      - 0.71875
      - 0.7265625
      - 0.734375
      - 0.7421875
      - 0.75
      - 0.7578125
      - 0.765625
      - 0.7734375
      - 0.78125
      - 0.7890625
      - 0.796875
      - 0.8046875
      - 0.8125
      - 0.8203125
      - 0.828125
      - 0.8359375
      - 0.84375
      - 0.8515625
      - 0.859375
      - 0.8671875
      - 0.875
      - 0.8828125
      - 0.890625
      - 0.8984375
      - 0.90625
      - 0.9140625
      - 0.921875
      - 0.9296875
      - 0.9375
      - 0.9453125
      - 0.953125
      - 0.9609375
      - 0.96875
      - 0.9765625
      - 0.984375
      - 0.9921875
  blueCurve:
    overrideState: 0
    value:
      curve:
        serializedVersion: 2
        m_Curve:
        - serializedVersion: 3
          time: 0
          value: 0
          inSlope: 1
          outSlope: 1
          tangentMode: 0
          weightedMode: 0
          inWeight: 0
          outWeight: 0
        - serializedVersion: 3
          time: 1
          value: 1
          inSlope: 1
          outSlope: 1
          tangentMode: 0
          weightedMode: 0
          inWeight: 0
          outWeight: 0
        m_PreInfinity: 2
        m_PostInfinity: 2
        m_RotationOrder: 4
      m_Loop: 0
      m_ZeroValue: 0
      m_Range: 1
      cachedData:
      - 0
      - 0.0078125
      - 0.015625
      - 0.0234375
      - 0.03125
      - 0.0390625
      - 0.046875
      - 0.0546875
      - 0.0625
      - 0.0703125
      - 0.078125
      - 0.0859375
      - 0.09375
      - 0.1015625
      - 0.109375
      - 0.1171875
      - 0.125
      - 0.1328125
      - 0.140625
      - 0.1484375
      - 0.15625
      - 0.1640625
      - 0.171875
      - 0.1796875
      - 0.1875
      - 0.1953125
      - 0.203125
      - 0.2109375
      - 0.21875
      - 0.2265625
      - 0.234375
      - 0.2421875
      - 0.25
      - 0.2578125
      - 0.265625
      - 0.2734375
      - 0.28125
      - 0.2890625
      - 0.296875
      - 0.3046875
      - 0.3125
      - 0.3203125
      - 0.328125
      - 0.3359375
      - 0.34375
      - 0.3515625
      - 0.359375
      - 0.3671875
      - 0.375
      - 0.3828125
      - 0.390625
      - 0.3984375
      - 0.40625
      - 0.4140625
      - 0.421875
      - 0.4296875
      - 0.4375
      - 0.4453125
      - 0.453125
      - 0.4609375
      - 0.46875
      - 0.4765625
      - 0.484375
      - 0.4921875
      - 0.5
      - 0.5078125
      - 0.515625
      - 0.5234375
      - 0.53125
      - 0.5390625
      - 0.546875
      - 0.5546875
      - 0.5625
      - 0.5703125
      - 0.578125
      - 0.5859375
      - 0.59375
      - 0.6015625
      - 0.609375
      - 0.6171875
      - 0.625
      - 0.6328125
      - 0.640625
      - 0.6484375
      - 0.65625
      - 0.6640625
      - 0.671875
      - 0.6796875
      - 0.6875
      - 0.6953125
      - 0.703125
      - 0.7109375
      - 0.71875
      - 0.7265625
      - 0.734375
      - 0.7421875
      - 0.75
      - 0.7578125
      - 0.765625
      - 0.7734375
      - 0.78125
      - 0.7890625
      - 0.796875
      - 0.8046875
      - 0.8125
      - 0.8203125
      - 0.828125
      - 0.8359375
      - 0.84375
      - 0.8515625
      - 0.859375
      - 0.8671875
      - 0.875
      - 0.8828125
      - 0.890625
      - 0.8984375
      - 0.90625
      - 0.9140625
      - 0.921875
      - 0.9296875
      - 0.9375
      - 0.9453125
      - 0.953125
      - 0.9609375
      - 0.96875
      - 0.9765625
      - 0.984375
      - 0.9921875
  hueVsHueCurve:
    overrideState: 0
    value:
      curve:
        serializedVersion: 2
        m_Curve: []
        m_PreInfinity: 2
        m_PostInfinity: 2
        m_RotationOrder: 4
      m_Loop: 1
      m_ZeroValue: 0.5
      m_Range: 1
      cachedData:
      - 0.5
      - 0.5
      - 0.5
      - 0.5
      - 0.5
      - 0.5
      - 0.5
      - 0.5
      - 0.5
      - 0.5
      - 0.5
      - 0.5
      - 0.5
      - 0.5
      - 0.5
      - 0.5
      - 0.5
      - 0.5
      - 0.5
      - 0.5
      - 0.5
      - 0.5
      - 0.5
      - 0.5
      - 0.5
      - 0.5
      - 0.5
      - 0.5
      - 0.5
      - 0.5
      - 0.5
      - 0.5
      - 0.5
      - 0.5
      - 0.5
      - 0.5
      - 0.5
      - 0.5
      - 0.5
      - 0.5
      - 0.5
      - 0.5
      - 0.5
      - 0.5
      - 0.5
      - 0.5
      - 0.5
      - 0.5
      - 0.5
      - 0.5
      - 0.5
      - 0.5
      - 0.5
      - 0.5
      - 0.5
      - 0.5
      - 0.5
      - 0.5
      - 0.5
      - 0.5
      - 0.5
      - 0.5
      - 0.5
      - 0.5
      - 0.5
      - 0.5
      - 0.5
      - 0.5
      - 0.5
      - 0.5
      - 0.5
      - 0.5
      - 0.5
      - 0.5
      - 0.5
      - 0.5
      - 0.5
      - 0.5
      - 0.5
      - 0.5
      - 0.5
      - 0.5
      - 0.5
      - 0.5
      - 0.5
      - 0.5
      - 0.5
      - 0.5
      - 0.5
      - 0.5
      - 0.5
      - 0.5
      - 0.5
      - 0.5
      - 0.5
      - 0.5
      - 0.5
      - 0.5
      - 0.5
      - 0.5
      - 0.5
      - 0.5
      - 0.5
      - 0.5
      - 0.5
      - 0.5
      - 0.5
      - 0.5
      - 0.5
      - 0.5
      - 0.5
      - 0.5
      - 0.5
      - 0.5
      - 0.5
      - 0.5
      - 0.5
      - 0.5
      - 0.5
      - 0.5
      - 0.5
      - 0.5
      - 0.5
      - 0.5
      - 0.5
      - 0.5
      - 0.5
      - 0.5
  hueVsSatCurve:
    overrideState: 0
    value:
      curve:
        serializedVersion: 2
        m_Curve: []
        m_PreInfinity: 2
        m_PostInfinity: 2
        m_RotationOrder: 4
      m_Loop: 1
      m_ZeroValue: 0.5
      m_Range: 1
      cachedData:
      - 0.5
      - 0.5
      - 0.5
      - 0.5
      - 0.5
      - 0.5
      - 0.5
      - 0.5
      - 0.5
      - 0.5
      - 0.5
      - 0.5
      - 0.5
      - 0.5
      - 0.5
      - 0.5
      - 0.5
      - 0.5
      - 0.5
      - 0.5
      - 0.5
      - 0.5
      - 0.5
      - 0.5
      - 0.5
      - 0.5
      - 0.5
      - 0.5
      - 0.5
      - 0.5
      - 0.5
      - 0.5
      - 0.5
      - 0.5
      - 0.5
      - 0.5
      - 0.5
      - 0.5
      - 0.5
      - 0.5
      - 0.5
      - 0.5
      - 0.5
      - 0.5
      - 0.5
      - 0.5
      - 0.5
      - 0.5
      - 0.5
      - 0.5
      - 0.5
      - 0.5
      - 0.5
      - 0.5
      - 0.5
      - 0.5
      - 0.5
      - 0.5
      - 0.5
      - 0.5
      - 0.5
      - 0.5
      - 0.5
      - 0.5
      - 0.5
      - 0.5
      - 0.5
      - 0.5
      - 0.5
      - 0.5
      - 0.5
      - 0.5
      - 0.5
      - 0.5
      - 0.5
      - 0.5
      - 0.5
      - 0.5
      - 0.5
      - 0.5
      - 0.5
      - 0.5
      - 0.5
      - 0.5
      - 0.5
      - 0.5
      - 0.5
      - 0.5
      - 0.5
      - 0.5
      - 0.5
      - 0.5
      - 0.5
      - 0.5
      - 0.5
      - 0.5
      - 0.5
      - 0.5
      - 0.5
      - 0.5
      - 0.5
      - 0.5
      - 0.5
      - 0.5
      - 0.5
      - 0.5
      - 0.5
      - 0.5
      - 0.5
      - 0.5
      - 0.5
      - 0.5
      - 0.5
      - 0.5
      - 0.5
      - 0.5
      - 0.5
      - 0.5
      - 0.5
      - 0.5
      - 0.5
      - 0.5
      - 0.5
      - 0.5
      - 0.5
      - 0.5
      - 0.5
      - 0.5
  satVsSatCurve:
    overrideState: 0
    value:
      curve:
        serializedVersion: 2
        m_Curve: []
        m_PreInfinity: 2
        m_PostInfinity: 2
        m_RotationOrder: 4
      m_Loop: 0
      m_ZeroValue: 0.5
      m_Range: 1
      cachedData:
      - 0.5
      - 0.5
      - 0.5
      - 0.5
      - 0.5
      - 0.5
      - 0.5
      - 0.5
      - 0.5
      - 0.5
      - 0.5
      - 0.5
      - 0.5
      - 0.5
      - 0.5
      - 0.5
      - 0.5
      - 0.5
      - 0.5
      - 0.5
      - 0.5
      - 0.5
      - 0.5
      - 0.5
      - 0.5
      - 0.5
      - 0.5
      - 0.5
      - 0.5
      - 0.5
      - 0.5
      - 0.5
      - 0.5
      - 0.5
      - 0.5
      - 0.5
      - 0.5
      - 0.5
      - 0.5
      - 0.5
      - 0.5
      - 0.5
      - 0.5
      - 0.5
      - 0.5
      - 0.5
      - 0.5
      - 0.5
      - 0.5
      - 0.5
      - 0.5
      - 0.5
      - 0.5
      - 0.5
      - 0.5
      - 0.5
      - 0.5
      - 0.5
      - 0.5
      - 0.5
      - 0.5
      - 0.5
      - 0.5
      - 0.5
      - 0.5
      - 0.5
      - 0.5
      - 0.5
      - 0.5
      - 0.5
      - 0.5
      - 0.5
      - 0.5
      - 0.5
      - 0.5
      - 0.5
      - 0.5
      - 0.5
      - 0.5
      - 0.5
      - 0.5
      - 0.5
      - 0.5
      - 0.5
      - 0.5
      - 0.5
      - 0.5
      - 0.5
      - 0.5
      - 0.5
      - 0.5
      - 0.5
      - 0.5
      - 0.5
      - 0.5
      - 0.5
      - 0.5
      - 0.5
      - 0.5
      - 0.5
      - 0.5
      - 0.5
      - 0.5
      - 0.5
      - 0.5
      - 0.5
      - 0.5
      - 0.5
      - 0.5
      - 0.5
      - 0.5
      - 0.5
      - 0.5
      - 0.5
      - 0.5
      - 0.5
      - 0.5
      - 0.5
      - 0.5
      - 0.5
      - 0.5
      - 0.5
      - 0.5
      - 0.5
      - 0.5
      - 0.5
      - 0.5
      - 0.5
  lumVsSatCurve:
    overrideState: 0
    value:
      curve:
        serializedVersion: 2
        m_Curve: []
        m_PreInfinity: 2
        m_PostInfinity: 2
        m_RotationOrder: 4
      m_Loop: 0
      m_ZeroValue: 0.5
      m_Range: 1
      cachedData:
      - 0.5
      - 0.5
      - 0.5
      - 0.5
      - 0.5
      - 0.5
      - 0.5
      - 0.5
      - 0.5
      - 0.5
      - 0.5
      - 0.5
      - 0.5
      - 0.5
      - 0.5
      - 0.5
      - 0.5
      - 0.5
      - 0.5
      - 0.5
      - 0.5
      - 0.5
      - 0.5
      - 0.5
      - 0.5
      - 0.5
      - 0.5
      - 0.5
      - 0.5
      - 0.5
      - 0.5
      - 0.5
      - 0.5
      - 0.5
      - 0.5
      - 0.5
      - 0.5
      - 0.5
      - 0.5
      - 0.5
      - 0.5
      - 0.5
      - 0.5
      - 0.5
      - 0.5
      - 0.5
      - 0.5
      - 0.5
      - 0.5
      - 0.5
      - 0.5
      - 0.5
      - 0.5
      - 0.5
      - 0.5
      - 0.5
      - 0.5
      - 0.5
      - 0.5
      - 0.5
      - 0.5
      - 0.5
      - 0.5
      - 0.5
      - 0.5
      - 0.5
      - 0.5
      - 0.5
      - 0.5
      - 0.5
      - 0.5
      - 0.5
      - 0.5
      - 0.5
      - 0.5
      - 0.5
      - 0.5
      - 0.5
      - 0.5
      - 0.5
      - 0.5
      - 0.5
      - 0.5
      - 0.5
      - 0.5
      - 0.5
      - 0.5
      - 0.5
      - 0.5
      - 0.5
      - 0.5
      - 0.5
      - 0.5
      - 0.5
      - 0.5
      - 0.5
      - 0.5
      - 0.5
      - 0.5
      - 0.5
      - 0.5
      - 0.5
      - 0.5
      - 0.5
      - 0.5
      - 0.5
      - 0.5
      - 0.5
      - 0.5
      - 0.5
      - 0.5
      - 0.5
      - 0.5
      - 0.5
      - 0.5
      - 0.5
      - 0.5
      - 0.5
      - 0.5
      - 0.5
      - 0.5
      - 0.5
      - 0.5
      - 0.5
      - 0.5
      - 0.5
      - 0.5
      - 0.5
--- !u!114 &-4236633920411249787
MonoBehaviour:
  m_ObjectHideFlags: 3
  m_CorrespondingSourceObject: {fileID: 0}
  m_PrefabInstance: {fileID: 0}
  m_PrefabAsset: {fileID: 0}
  m_GameObject: {fileID: 0}
  m_Enabled: 1
  m_EditorHideFlags: 0
  m_Script: {fileID: 11500000, guid: 556797029e73b2347956b6579e77e05b, type: 3}
  m_Name: DepthOfField
  m_EditorClassIdentifier: 
  active: 0
  enabled:
    overrideState: 1
    value: 1
  focusDistance:
    overrideState: 1
    value: 10
  aperture:
    overrideState: 1
    value: 5.6
  focalLength:
    overrideState: 1
    value: 50
  kernelSize:
    overrideState: 1
    value: 1
--- !u!114 &-2453538266807528143
MonoBehaviour:
  m_ObjectHideFlags: 3
  m_CorrespondingSourceObject: {fileID: 0}
  m_PrefabInstance: {fileID: 0}
  m_PrefabAsset: {fileID: 0}
  m_GameObject: {fileID: 0}
  m_Enabled: 1
  m_EditorHideFlags: 0
  m_Script: {fileID: 11500000, guid: c1cb7e9e120078f43bce4f0b1be547a7, type: 3}
  m_Name: AmbientOcclusion
  m_EditorClassIdentifier: 
  active: 1
  enabled:
    overrideState: 1
    value: 1
  mode:
    overrideState: 1
    value: 1
  intensity:
    overrideState: 1
    value: 1.2
  color:
    overrideState: 0
    value: {r: 0, g: 0, b: 0, a: 1}
  ambientOnly:
    overrideState: 0
    value: 1
  noiseFilterTolerance:
    overrideState: 0
    value: 0
  blurTolerance:
    overrideState: 0
    value: -4.6
  upsampleTolerance:
    overrideState: 0
    value: -12
  thicknessModifier:
    overrideState: 0
    value: 1
  directLightingStrength:
    overrideState: 0
    value: 0
  radius:
    overrideState: 0
    value: 0.25
  quality:
    overrideState: 0
    value: 2
--- !u!114 &-2343000734287730773
MonoBehaviour:
  m_ObjectHideFlags: 3
  m_CorrespondingSourceObject: {fileID: 0}
  m_PrefabInstance: {fileID: 0}
  m_PrefabAsset: {fileID: 0}
  m_GameObject: {fileID: 0}
  m_Enabled: 1
  m_EditorHideFlags: 0
  m_Script: {fileID: 11500000, guid: 40b924e2dad56384a8df2a1e111bb675, type: 3}
  m_Name: Vignette
  m_EditorClassIdentifier: 
  active: 1
  enabled:
    overrideState: 1
    value: 1
  mode:
    overrideState: 1
    value: 0
  color:
    overrideState: 1
    value: {r: 0.5566038, g: 0, b: 0.10018858, a: 1}
  center:
    overrideState: 0
    value: {x: 0.5, y: 0.5}
  intensity:
    overrideState: 1
    value: 0
  smoothness:
    overrideState: 1
    value: 0.4
  roundness:
    overrideState: 1
    value: 1
  rounded:
    overrideState: 1
    value: 0
  mask:
    overrideState: 1
    value: {fileID: 2800000, guid: 070a0428a15c4a34e8ffe60e757891b6, type: 3}
    defaultState: 1
  opacity:
    overrideState: 1
    value: 0.8
--- !u!114 &11400000
MonoBehaviour:
  m_ObjectHideFlags: 0
  m_CorrespondingSourceObject: {fileID: 0}
  m_PrefabInstance: {fileID: 0}
  m_PrefabAsset: {fileID: 0}
  m_GameObject: {fileID: 0}
  m_Enabled: 1
  m_EditorHideFlags: 0
  m_Script: {fileID: 11500000, guid: 8e6292b2c06870d4495f009f912b9600, type: 3}
  m_Name: CameraSettings
  m_EditorClassIdentifier: 
  settings:
  - {fileID: -6643271617664280835}
  - {fileID: -4236633920411249787}
  - {fileID: -4904595906486863053}
  - {fileID: -2343000734287730773}
  - {fileID: -8021794454375176925}
  - {fileID: -2453538266807528143}
