%YAML 1.1
%TAG !u! tag:unity3d.com,2011:
--- !u!114 &1312195560454578705
MonoBehaviour:
  m_ObjectHideFlags: 0
  m_CorrespondingSourceObject: {fileID: 0}
  m_PrefabInstance: {fileID: 0}
  m_PrefabAsset: {fileID: 0}
  m_GameObject: {fileID: 8218677543341918213}
  m_Enabled: 1
  m_EditorHideFlags: 0
  m_Script: {fileID: 11500000, guid: ed599e56ec7a04644b12722e234f58c5, type: 3}
  m_Name: 
  m_EditorClassIdentifier: 
  speed: 3
  hitPoints: 35
  aimOffset: {x: 0, y: 1, z: 0}
--- !u!1001 &8217548935448354431
PrefabInstance:
  m_ObjectHideFlags: 0
  serializedVersion: 2
  m_Modification:
    m_TransformParent: {fileID: 0}
    m_Modifications:
    - target: {fileID: 1128758269040250, guid: f88c6ad57910d8648807bcf0c131f49d, type: 3}
      propertyPath: m_Name
      value: TANK
      objectReference: {fileID: 0}
    - target: {fileID: 1128758269040250, guid: f88c6ad57910d8648807bcf0c131f49d, type: 3}
      propertyPath: m_TagString
      value: Dummie
      objectReference: {fileID: 0}
    - target: {fileID: 1722177269563604, guid: f88c6ad57910d8648807bcf0c131f49d, type: 3}
      propertyPath: m_TagString
      value: Dummie
      objectReference: {fileID: 0}
    - target: {fileID: 4049026081563826, guid: f88c6ad57910d8648807bcf0c131f49d, type: 3}
      propertyPath: m_LocalEulerAnglesHint.x
      value: -0.073792525
      objectReference: {fileID: 0}
    - target: {fileID: 4049026081563826, guid: f88c6ad57910d8648807bcf0c131f49d, type: 3}
      propertyPath: m_LocalEulerAnglesHint.y
      value: -93.22915
      objectReference: {fileID: 0}
    - target: {fileID: 4049026081563826, guid: f88c6ad57910d8648807bcf0c131f49d, type: 3}
      propertyPath: m_LocalEulerAnglesHint.z
      value: 153.69238
      objectReference: {fileID: 0}
    - target: {fileID: 4054574642770526, guid: f88c6ad57910d8648807bcf0c131f49d, type: 3}
      propertyPath: m_LocalEulerAnglesHint.x
      value: 80.55901
      objectReference: {fileID: 0}
    - target: {fileID: 4054574642770526, guid: f88c6ad57910d8648807bcf0c131f49d, type: 3}
      propertyPath: m_LocalEulerAnglesHint.y
      value: 168.12717
      objectReference: {fileID: 0}
    - target: {fileID: 4054574642770526, guid: f88c6ad57910d8648807bcf0c131f49d, type: 3}
      propertyPath: m_LocalEulerAnglesHint.z
      value: -91.462746
      objectReference: {fileID: 0}
    - target: {fileID: 4054819628335862, guid: f88c6ad57910d8648807bcf0c131f49d, type: 3}
      propertyPath: m_LocalEulerAnglesHint.x
      value: -90
      objectReference: {fileID: 0}
    - target: {fileID: 4070781948999046, guid: f88c6ad57910d8648807bcf0c131f49d, type: 3}
      propertyPath: m_LocalEulerAnglesHint.x
      value: 50.045486
      objectReference: {fileID: 0}
    - target: {fileID: 4070781948999046, guid: f88c6ad57910d8648807bcf0c131f49d, type: 3}
      propertyPath: m_LocalEulerAnglesHint.y
      value: -36.439697
      objectReference: {fileID: 0}
    - target: {fileID: 4070781948999046, guid: f88c6ad57910d8648807bcf0c131f49d, type: 3}
      propertyPath: m_LocalEulerAnglesHint.z
      value: -176.37607
      objectReference: {fileID: 0}
    - target: {fileID: 4103193232510060, guid: f88c6ad57910d8648807bcf0c131f49d, type: 3}
      propertyPath: m_LocalEulerAnglesHint.x
      value: -1.327888
      objectReference: {fileID: 0}
    - target: {fileID: 4103193232510060, guid: f88c6ad57910d8648807bcf0c131f49d, type: 3}
      propertyPath: m_LocalEulerAnglesHint.y
      value: -88.27779
      objectReference: {fileID: 0}
    - target: {fileID: 4103193232510060, guid: f88c6ad57910d8648807bcf0c131f49d, type: 3}
      propertyPath: m_LocalEulerAnglesHint.z
      value: 23.713575
      objectReference: {fileID: 0}
    - target: {fileID: 4117629182576632, guid: f88c6ad57910d8648807bcf0c131f49d, type: 3}
      propertyPath: m_LocalEulerAnglesHint.x
      value: 0.76815516
      objectReference: {fileID: 0}
    - target: {fileID: 4117629182576632, guid: f88c6ad57910d8648807bcf0c131f49d, type: 3}
      propertyPath: m_LocalEulerAnglesHint.y
      value: 2.550421
      objectReference: {fileID: 0}
    - target: {fileID: 4117629182576632, guid: f88c6ad57910d8648807bcf0c131f49d, type: 3}
      propertyPath: m_LocalEulerAnglesHint.z
      value: -19.774523
      objectReference: {fileID: 0}
    - target: {fileID: 4119669933948550, guid: f88c6ad57910d8648807bcf0c131f49d, type: 3}
      propertyPath: m_LocalEulerAnglesHint.x
      value: -0.07379466
      objectReference: {fileID: 0}
    - target: {fileID: 4119669933948550, guid: f88c6ad57910d8648807bcf0c131f49d, type: 3}
      propertyPath: m_LocalEulerAnglesHint.y
      value: -93.22916
      objectReference: {fileID: 0}
    - target: {fileID: 4119669933948550, guid: f88c6ad57910d8648807bcf0c131f49d, type: 3}
      propertyPath: m_LocalEulerAnglesHint.z
      value: 173.69237
      objectReference: {fileID: 0}
    - target: {fileID: 4140290212659504, guid: f88c6ad57910d8648807bcf0c131f49d, type: 3}
      propertyPath: m_LocalEulerAnglesHint.x
      value: 0.6346183
      objectReference: {fileID: 0}
    - target: {fileID: 4140290212659504, guid: f88c6ad57910d8648807bcf0c131f49d, type: 3}
      propertyPath: m_LocalEulerAnglesHint.y
      value: 2.4972
      objectReference: {fileID: 0}
    - target: {fileID: 4140290212659504, guid: f88c6ad57910d8648807bcf0c131f49d, type: 3}
      propertyPath: m_LocalEulerAnglesHint.z
      value: -18.579819
      objectReference: {fileID: 0}
    - target: {fileID: 4196651886654518, guid: f88c6ad57910d8648807bcf0c131f49d, type: 3}
      propertyPath: m_LocalEulerAnglesHint.x
      value: -60.387207
      objectReference: {fileID: 0}
    - target: {fileID: 4196651886654518, guid: f88c6ad57910d8648807bcf0c131f49d, type: 3}
      propertyPath: m_LocalEulerAnglesHint.y
      value: 76.61355
      objectReference: {fileID: 0}
    - target: {fileID: 4196651886654518, guid: f88c6ad57910d8648807bcf0c131f49d, type: 3}
      propertyPath: m_LocalEulerAnglesHint.z
      value: -164.72401
      objectReference: {fileID: 0}
    - target: {fileID: 4231299022180116, guid: f88c6ad57910d8648807bcf0c131f49d, type: 3}
      propertyPath: m_LocalEulerAnglesHint.x
      value: -2.506906
      objectReference: {fileID: 0}
    - target: {fileID: 4231299022180116, guid: f88c6ad57910d8648807bcf0c131f49d, type: 3}
      propertyPath: m_LocalEulerAnglesHint.y
      value: 2.292172
      objectReference: {fileID: 0}
    - target: {fileID: 4231299022180116, guid: f88c6ad57910d8648807bcf0c131f49d, type: 3}
      propertyPath: m_LocalEulerAnglesHint.z
      value: -21.574305
      objectReference: {fileID: 0}
    - target: {fileID: 4257765354184968, guid: f88c6ad57910d8648807bcf0c131f49d, type: 3}
      propertyPath: m_LocalEulerAnglesHint.y
      value: -90.00001
      objectReference: {fileID: 0}
    - target: {fileID: 4257765354184968, guid: f88c6ad57910d8648807bcf0c131f49d, type: 3}
      propertyPath: m_LocalEulerAnglesHint.z
      value: -90
      objectReference: {fileID: 0}
    - target: {fileID: 4259107049340980, guid: f88c6ad57910d8648807bcf0c131f49d, type: 3}
      propertyPath: m_LocalEulerAnglesHint.y
      value: -90.00001
      objectReference: {fileID: 0}
    - target: {fileID: 4259107049340980, guid: f88c6ad57910d8648807bcf0c131f49d, type: 3}
      propertyPath: m_LocalEulerAnglesHint.z
      value: -90
      objectReference: {fileID: 0}
    - target: {fileID: 4259107049340980, guid: f88c6ad57910d8648807bcf0c131f49d, type: 3}
      propertyPath: m_LocalEulerAnglesHint.x
      value: 0
      objectReference: {fileID: 0}
    - target: {fileID: 4315525469342356, guid: f88c6ad57910d8648807bcf0c131f49d, type: 3}
      propertyPath: m_LocalEulerAnglesHint.x
      value: 0.000008537736
      objectReference: {fileID: 0}
    - target: {fileID: 4315525469342356, guid: f88c6ad57910d8648807bcf0c131f49d, type: 3}
      propertyPath: m_LocalEulerAnglesHint.y
      value: -89.99987
      objectReference: {fileID: 0}
    - target: {fileID: 4315525469342356, guid: f88c6ad57910d8648807bcf0c131f49d, type: 3}
      propertyPath: m_LocalEulerAnglesHint.z
      value: -93.02181
      objectReference: {fileID: 0}
    - target: {fileID: 4338430299291746, guid: f88c6ad57910d8648807bcf0c131f49d, type: 3}
      propertyPath: m_LocalEulerAnglesHint.x
      value: 60.332443
      objectReference: {fileID: 0}
    - target: {fileID: 4338430299291746, guid: f88c6ad57910d8648807bcf0c131f49d, type: 3}
      propertyPath: m_LocalEulerAnglesHint.y
      value: -76.21317
      objectReference: {fileID: 0}
    - target: {fileID: 4338430299291746, guid: f88c6ad57910d8648807bcf0c131f49d, type: 3}
      propertyPath: m_LocalEulerAnglesHint.z
      value: -164.89017
      objectReference: {fileID: 0}
    - target: {fileID: 4352870845108928, guid: f88c6ad57910d8648807bcf0c131f49d, type: 3}
      propertyPath: m_LocalEulerAnglesHint.x
      value: 0.50174695
      objectReference: {fileID: 0}
    - target: {fileID: 4352870845108928, guid: f88c6ad57910d8648807bcf0c131f49d, type: 3}
      propertyPath: m_LocalEulerAnglesHint.y
      value: -87.56075
      objectReference: {fileID: 0}
    - target: {fileID: 4352870845108928, guid: f88c6ad57910d8648807bcf0c131f49d, type: 3}
      propertyPath: m_LocalEulerAnglesHint.z
      value: 42.054386
      objectReference: {fileID: 0}
    - target: {fileID: 4375254234783096, guid: f88c6ad57910d8648807bcf0c131f49d, type: 3}
      propertyPath: m_LocalEulerAnglesHint.x
      value: 2.0643468
      objectReference: {fileID: 0}
    - target: {fileID: 4375254234783096, guid: f88c6ad57910d8648807bcf0c131f49d, type: 3}
      propertyPath: m_LocalEulerAnglesHint.y
      value: -88.11035
      objectReference: {fileID: 0}
    - target: {fileID: 4375254234783096, guid: f88c6ad57910d8648807bcf0c131f49d, type: 3}
      propertyPath: m_LocalEulerAnglesHint.z
      value: 45.238804
      objectReference: {fileID: 0}
    - target: {fileID: 4403820970570362, guid: f88c6ad57910d8648807bcf0c131f49d, type: 3}
      propertyPath: m_LocalEulerAnglesHint.x
      value: -5.3034625
      objectReference: {fileID: 0}
    - target: {fileID: 4403820970570362, guid: f88c6ad57910d8648807bcf0c131f49d, type: 3}
      propertyPath: m_LocalEulerAnglesHint.y
      value: 6.9700146
      objectReference: {fileID: 0}
    - target: {fileID: 4403820970570362, guid: f88c6ad57910d8648807bcf0c131f49d, type: 3}
      propertyPath: m_LocalEulerAnglesHint.z
      value: -1.7194101
      objectReference: {fileID: 0}
    - target: {fileID: 4414295290367788, guid: f88c6ad57910d8648807bcf0c131f49d, type: 3}
      propertyPath: m_LocalEulerAnglesHint.x
      value: -22.831474
      objectReference: {fileID: 0}
    - target: {fileID: 4414295290367788, guid: f88c6ad57910d8648807bcf0c131f49d, type: 3}
      propertyPath: m_LocalEulerAnglesHint.y
      value: 43.48082
      objectReference: {fileID: 0}
    - target: {fileID: 4414295290367788, guid: f88c6ad57910d8648807bcf0c131f49d, type: 3}
      propertyPath: m_LocalEulerAnglesHint.z
      value: -111.704285
      objectReference: {fileID: 0}
    - target: {fileID: 4442939881410186, guid: f88c6ad57910d8648807bcf0c131f49d, type: 3}
      propertyPath: m_LocalEulerAnglesHint.x
      value: 0
      objectReference: {fileID: 0}
    - target: {fileID: 4442939881410186, guid: f88c6ad57910d8648807bcf0c131f49d, type: 3}
      propertyPath: m_LocalEulerAnglesHint.y
      value: -90
      objectReference: {fileID: 0}
    - target: {fileID: 4442939881410186, guid: f88c6ad57910d8648807bcf0c131f49d, type: 3}
      propertyPath: m_LocalEulerAnglesHint.z
      value: -105.872375
      objectReference: {fileID: 0}
    - target: {fileID: 4444695180855720, guid: f88c6ad57910d8648807bcf0c131f49d, type: 3}
      propertyPath: m_LocalPosition.x
      value: 2.97
      objectReference: {fileID: 0}
    - target: {fileID: 4444695180855720, guid: f88c6ad57910d8648807bcf0c131f49d, type: 3}
      propertyPath: m_LocalPosition.y
      value: 0.05
      objectReference: {fileID: 0}
    - target: {fileID: 4444695180855720, guid: f88c6ad57910d8648807bcf0c131f49d, type: 3}
      propertyPath: m_LocalPosition.z
      value: 4.0299997
      objectReference: {fileID: 0}
    - target: {fileID: 4444695180855720, guid: f88c6ad57910d8648807bcf0c131f49d, type: 3}
      propertyPath: m_LocalRotation.x
      value: 0
      objectReference: {fileID: 0}
    - target: {fileID: 4444695180855720, guid: f88c6ad57910d8648807bcf0c131f49d, type: 3}
      propertyPath: m_LocalRotation.y
      value: 0
      objectReference: {fileID: 0}
    - target: {fileID: 4444695180855720, guid: f88c6ad57910d8648807bcf0c131f49d, type: 3}
      propertyPath: m_LocalRotation.z
      value: 0
      objectReference: {fileID: 0}
    - target: {fileID: 4444695180855720, guid: f88c6ad57910d8648807bcf0c131f49d, type: 3}
      propertyPath: m_LocalRotation.w
      value: 1
      objectReference: {fileID: 0}
    - target: {fileID: 4444695180855720, guid: f88c6ad57910d8648807bcf0c131f49d, type: 3}
      propertyPath: m_RootOrder
      value: 0
      objectReference: {fileID: 0}
    - target: {fileID: 4444695180855720, guid: f88c6ad57910d8648807bcf0c131f49d, type: 3}
      propertyPath: m_LocalEulerAnglesHint.x
      value: 0
      objectReference: {fileID: 0}
    - target: {fileID: 4444695180855720, guid: f88c6ad57910d8648807bcf0c131f49d, type: 3}
      propertyPath: m_LocalEulerAnglesHint.y
      value: 0
      objectReference: {fileID: 0}
    - target: {fileID: 4444695180855720, guid: f88c6ad57910d8648807bcf0c131f49d, type: 3}
      propertyPath: m_LocalEulerAnglesHint.z
      value: 0
      objectReference: {fileID: 0}
    - target: {fileID: 4445618330094918, guid: f88c6ad57910d8648807bcf0c131f49d, type: 3}
      propertyPath: m_LocalEulerAnglesHint.x
      value: -5.0131664
      objectReference: {fileID: 0}
    - target: {fileID: 4445618330094918, guid: f88c6ad57910d8648807bcf0c131f49d, type: 3}
      propertyPath: m_LocalEulerAnglesHint.y
      value: 8.006836
      objectReference: {fileID: 0}
    - target: {fileID: 4445618330094918, guid: f88c6ad57910d8648807bcf0c131f49d, type: 3}
      propertyPath: m_LocalEulerAnglesHint.z
      value: -10.91125
      objectReference: {fileID: 0}
    - target: {fileID: 4482801368966868, guid: f88c6ad57910d8648807bcf0c131f49d, type: 3}
      propertyPath: m_LocalEulerAnglesHint.x
      value: 13.991468
      objectReference: {fileID: 0}
    - target: {fileID: 4482801368966868, guid: f88c6ad57910d8648807bcf0c131f49d, type: 3}
      propertyPath: m_LocalEulerAnglesHint.y
      value: -34.01599
      objectReference: {fileID: 0}
    - target: {fileID: 4482801368966868, guid: f88c6ad57910d8648807bcf0c131f49d, type: 3}
      propertyPath: m_LocalEulerAnglesHint.z
      value: 136.3895
      objectReference: {fileID: 0}
    - target: {fileID: 4503046169023880, guid: f88c6ad57910d8648807bcf0c131f49d, type: 3}
      propertyPath: m_LocalEulerAnglesHint.x
      value: -0.000012806604
      objectReference: {fileID: 0}
    - target: {fileID: 4503046169023880, guid: f88c6ad57910d8648807bcf0c131f49d, type: 3}
      propertyPath: m_LocalEulerAnglesHint.y
      value: -87.43015
      objectReference: {fileID: 0}
    - target: {fileID: 4503046169023880, guid: f88c6ad57910d8648807bcf0c131f49d, type: 3}
      propertyPath: m_LocalEulerAnglesHint.z
      value: -159.99998
      objectReference: {fileID: 0}
    - target: {fileID: 4573788471222622, guid: f88c6ad57910d8648807bcf0c131f49d, type: 3}
      propertyPath: m_LocalEulerAnglesHint.x
      value: -49.38488
      objectReference: {fileID: 0}
    - target: {fileID: 4573788471222622, guid: f88c6ad57910d8648807bcf0c131f49d, type: 3}
      propertyPath: m_LocalEulerAnglesHint.y
      value: 44.850307
      objectReference: {fileID: 0}
    - target: {fileID: 4573788471222622, guid: f88c6ad57910d8648807bcf0c131f49d, type: 3}
      propertyPath: m_LocalEulerAnglesHint.z
      value: -152.82182
      objectReference: {fileID: 0}
    - target: {fileID: 4576593751153924, guid: f88c6ad57910d8648807bcf0c131f49d, type: 3}
      propertyPath: m_LocalEulerAnglesHint.x
      value: -9.127621
      objectReference: {fileID: 0}
    - target: {fileID: 4576593751153924, guid: f88c6ad57910d8648807bcf0c131f49d, type: 3}
      propertyPath: m_LocalEulerAnglesHint.y
      value: -82.93707
      objectReference: {fileID: 0}
    - target: {fileID: 4576593751153924, guid: f88c6ad57910d8648807bcf0c131f49d, type: 3}
      propertyPath: m_LocalEulerAnglesHint.z
      value: 12.665307
      objectReference: {fileID: 0}
    - target: {fileID: 4591620879234358, guid: f88c6ad57910d8648807bcf0c131f49d, type: 3}
      propertyPath: m_LocalEulerAnglesHint.x
      value: -0.000012806604
      objectReference: {fileID: 0}
    - target: {fileID: 4591620879234358, guid: f88c6ad57910d8648807bcf0c131f49d, type: 3}
      propertyPath: m_LocalEulerAnglesHint.y
      value: -87.43015
      objectReference: {fileID: 0}
    - target: {fileID: 4591620879234358, guid: f88c6ad57910d8648807bcf0c131f49d, type: 3}
      propertyPath: m_LocalEulerAnglesHint.z
      value: -159.99998
      objectReference: {fileID: 0}
    - target: {fileID: 4600761528984928, guid: f88c6ad57910d8648807bcf0c131f49d, type: 3}
      propertyPath: m_LocalEulerAnglesHint.x
      value: -0.0000008103373
      objectReference: {fileID: 0}
    - target: {fileID: 4600761528984928, guid: f88c6ad57910d8648807bcf0c131f49d, type: 3}
      propertyPath: m_LocalEulerAnglesHint.y
      value: -0.0000038255544
      objectReference: {fileID: 0}
    - target: {fileID: 4600761528984928, guid: f88c6ad57910d8648807bcf0c131f49d, type: 3}
      propertyPath: m_LocalEulerAnglesHint.z
      value: -20
      objectReference: {fileID: 0}
    - target: {fileID: 4604717255139794, guid: f88c6ad57910d8648807bcf0c131f49d, type: 3}
      propertyPath: m_LocalEulerAnglesHint.x
      value: 0
      objectReference: {fileID: 0}
    - target: {fileID: 4604717255139794, guid: f88c6ad57910d8648807bcf0c131f49d, type: 3}
      propertyPath: m_LocalEulerAnglesHint.y
      value: -90
      objectReference: {fileID: 0}
    - target: {fileID: 4604717255139794, guid: f88c6ad57910d8648807bcf0c131f49d, type: 3}
      propertyPath: m_LocalEulerAnglesHint.z
      value: -108.1152
      objectReference: {fileID: 0}
    - target: {fileID: 4629610768171582, guid: f88c6ad57910d8648807bcf0c131f49d, type: 3}
      propertyPath: m_LocalEulerAnglesHint.x
      value: 0
      objectReference: {fileID: 0}
    - target: {fileID: 4629610768171582, guid: f88c6ad57910d8648807bcf0c131f49d, type: 3}
      propertyPath: m_LocalEulerAnglesHint.y
      value: -90
      objectReference: {fileID: 0}
    - target: {fileID: 4629610768171582, guid: f88c6ad57910d8648807bcf0c131f49d, type: 3}
      propertyPath: m_LocalEulerAnglesHint.z
      value: -81.89997
      objectReference: {fileID: 0}
    - target: {fileID: 4631733832973064, guid: f88c6ad57910d8648807bcf0c131f49d, type: 3}
      propertyPath: m_LocalEulerAnglesHint.x
      value: 0.188513
      objectReference: {fileID: 0}
    - target: {fileID: 4631733832973064, guid: f88c6ad57910d8648807bcf0c131f49d, type: 3}
      propertyPath: m_LocalEulerAnglesHint.y
      value: -2.8105397
      objectReference: {fileID: 0}
    - target: {fileID: 4631733832973064, guid: f88c6ad57910d8648807bcf0c131f49d, type: 3}
      propertyPath: m_LocalEulerAnglesHint.z
      value: -1.4115062
      objectReference: {fileID: 0}
    - target: {fileID: 4662922861750382, guid: f88c6ad57910d8648807bcf0c131f49d, type: 3}
      propertyPath: m_LocalEulerAnglesHint.x
      value: -7.916159
      objectReference: {fileID: 0}
    - target: {fileID: 4662922861750382, guid: f88c6ad57910d8648807bcf0c131f49d, type: 3}
      propertyPath: m_LocalEulerAnglesHint.y
      value: -15.921866
      objectReference: {fileID: 0}
    - target: {fileID: 4662922861750382, guid: f88c6ad57910d8648807bcf0c131f49d, type: 3}
      propertyPath: m_LocalEulerAnglesHint.z
      value: -154.39496
      objectReference: {fileID: 0}
    - target: {fileID: 4672576428163864, guid: f88c6ad57910d8648807bcf0c131f49d, type: 3}
      propertyPath: m_LocalEulerAnglesHint.x
      value: -58.522343
      objectReference: {fileID: 0}
    - target: {fileID: 4672576428163864, guid: f88c6ad57910d8648807bcf0c131f49d, type: 3}
      propertyPath: m_LocalEulerAnglesHint.y
      value: -159.32823
      objectReference: {fileID: 0}
    - target: {fileID: 4672576428163864, guid: f88c6ad57910d8648807bcf0c131f49d, type: 3}
      propertyPath: m_LocalEulerAnglesHint.z
      value: -141.91376
      objectReference: {fileID: 0}
    - target: {fileID: 4685451024947768, guid: f88c6ad57910d8648807bcf0c131f49d, type: 3}
      propertyPath: m_LocalEulerAnglesHint.x
      value: -15.782394
      objectReference: {fileID: 0}
    - target: {fileID: 4685451024947768, guid: f88c6ad57910d8648807bcf0c131f49d, type: 3}
      propertyPath: m_LocalEulerAnglesHint.y
      value: -77.11446
      objectReference: {fileID: 0}
    - target: {fileID: 4685451024947768, guid: f88c6ad57910d8648807bcf0c131f49d, type: 3}
      propertyPath: m_LocalEulerAnglesHint.z
      value: 10.010174
      objectReference: {fileID: 0}
    - target: {fileID: 4785662478029756, guid: f88c6ad57910d8648807bcf0c131f49d, type: 3}
      propertyPath: m_LocalEulerAnglesHint.x
      value: -45.61044
      objectReference: {fileID: 0}
    - target: {fileID: 4785662478029756, guid: f88c6ad57910d8648807bcf0c131f49d, type: 3}
      propertyPath: m_LocalEulerAnglesHint.y
      value: 121.9146
      objectReference: {fileID: 0}
    - target: {fileID: 4785662478029756, guid: f88c6ad57910d8648807bcf0c131f49d, type: 3}
      propertyPath: m_LocalEulerAnglesHint.z
      value: -67.79845
      objectReference: {fileID: 0}
    - target: {fileID: 4796741790252284, guid: f88c6ad57910d8648807bcf0c131f49d, type: 3}
      propertyPath: m_LocalEulerAnglesHint.x
      value: 0.0000051226416
      objectReference: {fileID: 0}
    - target: {fileID: 4796741790252284, guid: f88c6ad57910d8648807bcf0c131f49d, type: 3}
      propertyPath: m_LocalEulerAnglesHint.y
      value: -90.00042
      objectReference: {fileID: 0}
    - target: {fileID: 4796741790252284, guid: f88c6ad57910d8648807bcf0c131f49d, type: 3}
      propertyPath: m_LocalEulerAnglesHint.z
      value: -88.15232
      objectReference: {fileID: 0}
    - target: {fileID: 4803628188374764, guid: f88c6ad57910d8648807bcf0c131f49d, type: 3}
      propertyPath: m_LocalEulerAnglesHint.x
      value: 36.33465
      objectReference: {fileID: 0}
    - target: {fileID: 4803628188374764, guid: f88c6ad57910d8648807bcf0c131f49d, type: 3}
      propertyPath: m_LocalEulerAnglesHint.y
      value: -37.49301
      objectReference: {fileID: 0}
    - target: {fileID: 4803628188374764, guid: f88c6ad57910d8648807bcf0c131f49d, type: 3}
      propertyPath: m_LocalEulerAnglesHint.z
      value: 77.95952
      objectReference: {fileID: 0}
    - target: {fileID: 4813669988022616, guid: f88c6ad57910d8648807bcf0c131f49d, type: 3}
      propertyPath: m_LocalEulerAnglesHint.x
      value: -13.742432
      objectReference: {fileID: 0}
    - target: {fileID: 4813669988022616, guid: f88c6ad57910d8648807bcf0c131f49d, type: 3}
      propertyPath: m_LocalEulerAnglesHint.y
      value: 34.363792
      objectReference: {fileID: 0}
    - target: {fileID: 4813669988022616, guid: f88c6ad57910d8648807bcf0c131f49d, type: 3}
      propertyPath: m_LocalEulerAnglesHint.z
      value: 135.97578
      objectReference: {fileID: 0}
    - target: {fileID: 4835502567530228, guid: f88c6ad57910d8648807bcf0c131f49d, type: 3}
      propertyPath: m_LocalEulerAnglesHint.x
      value: -0.000010532242
      objectReference: {fileID: 0}
    - target: {fileID: 4835502567530228, guid: f88c6ad57910d8648807bcf0c131f49d, type: 3}
      propertyPath: m_LocalEulerAnglesHint.y
      value: -87.188736
      objectReference: {fileID: 0}
    - target: {fileID: 4835502567530228, guid: f88c6ad57910d8648807bcf0c131f49d, type: 3}
      propertyPath: m_LocalEulerAnglesHint.z
      value: -179.99998
      objectReference: {fileID: 0}
    - target: {fileID: 4891744612546170, guid: f88c6ad57910d8648807bcf0c131f49d, type: 3}
      propertyPath: m_LocalEulerAnglesHint.x
      value: 37.032158
      objectReference: {fileID: 0}
    - target: {fileID: 4891744612546170, guid: f88c6ad57910d8648807bcf0c131f49d, type: 3}
      propertyPath: m_LocalEulerAnglesHint.y
      value: 37.258305
      objectReference: {fileID: 0}
    - target: {fileID: 4891744612546170, guid: f88c6ad57910d8648807bcf0c131f49d, type: 3}
      propertyPath: m_LocalEulerAnglesHint.z
      value: -44.808678
      objectReference: {fileID: 0}
    - target: {fileID: 4899417539313038, guid: f88c6ad57910d8648807bcf0c131f49d, type: 3}
      propertyPath: m_LocalEulerAnglesHint.x
      value: -0.42682794
      objectReference: {fileID: 0}
    - target: {fileID: 4899417539313038, guid: f88c6ad57910d8648807bcf0c131f49d, type: 3}
      propertyPath: m_LocalEulerAnglesHint.y
      value: 0.2943319
      objectReference: {fileID: 0}
    - target: {fileID: 4899417539313038, guid: f88c6ad57910d8648807bcf0c131f49d, type: 3}
      propertyPath: m_LocalEulerAnglesHint.z
      value: -157.94614
      objectReference: {fileID: 0}
    - target: {fileID: 4899931363360970, guid: f88c6ad57910d8648807bcf0c131f49d, type: 3}
      propertyPath: m_LocalEulerAnglesHint.x
      value: -1.8323858
      objectReference: {fileID: 0}
    - target: {fileID: 4899931363360970, guid: f88c6ad57910d8648807bcf0c131f49d, type: 3}
      propertyPath: m_LocalEulerAnglesHint.y
      value: 3.050737
      objectReference: {fileID: 0}
    - target: {fileID: 4899931363360970, guid: f88c6ad57910d8648807bcf0c131f49d, type: 3}
      propertyPath: m_LocalEulerAnglesHint.z
      value: 13.3924465
      objectReference: {fileID: 0}
    - target: {fileID: 4900698609492018, guid: f88c6ad57910d8648807bcf0c131f49d, type: 3}
      propertyPath: m_LocalEulerAnglesHint.x
      value: -36.24526
      objectReference: {fileID: 0}
    - target: {fileID: 4900698609492018, guid: f88c6ad57910d8648807bcf0c131f49d, type: 3}
      propertyPath: m_LocalEulerAnglesHint.y
      value: -36.245552
      objectReference: {fileID: 0}
    - target: {fileID: 4900698609492018, guid: f88c6ad57910d8648807bcf0c131f49d, type: 3}
      propertyPath: m_LocalEulerAnglesHint.z
      value: -43.823166
      objectReference: {fileID: 0}
    - target: {fileID: 4914739186770340, guid: f88c6ad57910d8648807bcf0c131f49d, type: 3}
      propertyPath: m_LocalEulerAnglesHint.x
      value: -35.040768
      objectReference: {fileID: 0}
    - target: {fileID: 4914739186770340, guid: f88c6ad57910d8648807bcf0c131f49d, type: 3}
      propertyPath: m_LocalEulerAnglesHint.y
      value: 37.003456
      objectReference: {fileID: 0}
    - target: {fileID: 4914739186770340, guid: f88c6ad57910d8648807bcf0c131f49d, type: 3}
      propertyPath: m_LocalEulerAnglesHint.z
      value: 76.229965
      objectReference: {fileID: 0}
    - target: {fileID: 4932550731915200, guid: f88c6ad57910d8648807bcf0c131f49d, type: 3}
      propertyPath: m_LocalEulerAnglesHint.x
      value: 64.97374
      objectReference: {fileID: 0}
    - target: {fileID: 4932550731915200, guid: f88c6ad57910d8648807bcf0c131f49d, type: 3}
      propertyPath: m_LocalEulerAnglesHint.y
      value: -167.18207
      objectReference: {fileID: 0}
    - target: {fileID: 4932550731915200, guid: f88c6ad57910d8648807bcf0c131f49d, type: 3}
      propertyPath: m_LocalEulerAnglesHint.z
      value: -113.4555
      objectReference: {fileID: 0}
    - target: {fileID: 4933216803954238, guid: f88c6ad57910d8648807bcf0c131f49d, type: 3}
      propertyPath: m_LocalEulerAnglesHint.x
      value: 23.683027
      objectReference: {fileID: 0}
    - target: {fileID: 4933216803954238, guid: f88c6ad57910d8648807bcf0c131f49d, type: 3}
      propertyPath: m_LocalEulerAnglesHint.y
      value: -147.0009
      objectReference: {fileID: 0}
    - target: {fileID: 4933216803954238, guid: f88c6ad57910d8648807bcf0c131f49d, type: 3}
      propertyPath: m_LocalEulerAnglesHint.z
      value: -19.608574
      objectReference: {fileID: 0}
    - target: {fileID: 4958880585165120, guid: f88c6ad57910d8648807bcf0c131f49d, type: 3}
      propertyPath: m_LocalEulerAnglesHint.x
      value: 0.79224056
      objectReference: {fileID: 0}
    - target: {fileID: 4958880585165120, guid: f88c6ad57910d8648807bcf0c131f49d, type: 3}
      propertyPath: m_LocalEulerAnglesHint.y
      value: -1.4546816
      objectReference: {fileID: 0}
    - target: {fileID: 4958880585165120, guid: f88c6ad57910d8648807bcf0c131f49d, type: 3}
      propertyPath: m_LocalEulerAnglesHint.z
      value: 3.1866586
      objectReference: {fileID: 0}
    - target: {fileID: 4960443990332442, guid: f88c6ad57910d8648807bcf0c131f49d, type: 3}
      propertyPath: m_LocalEulerAnglesHint.x
      value: -70.95377
      objectReference: {fileID: 0}
    - target: {fileID: 4960443990332442, guid: f88c6ad57910d8648807bcf0c131f49d, type: 3}
      propertyPath: m_LocalEulerAnglesHint.y
      value: 153.89375
      objectReference: {fileID: 0}
    - target: {fileID: 4960443990332442, guid: f88c6ad57910d8648807bcf0c131f49d, type: 3}
      propertyPath: m_LocalEulerAnglesHint.z
      value: -53.1436
      objectReference: {fileID: 0}
    - target: {fileID: 137111010946803922, guid: f88c6ad57910d8648807bcf0c131f49d,
        type: 3}
      propertyPath: m_Materials.Array.data[0]
      value: 
      objectReference: {fileID: 2100000, guid: b518ef67d2b70e4419cf528540b0a66e, type: 2}
    m_RemovedComponents:
    - {fileID: 1420001859716937643, guid: f88c6ad57910d8648807bcf0c131f49d, type: 3}
  m_SourcePrefab: {fileID: 100100000, guid: f88c6ad57910d8648807bcf0c131f49d, type: 3}
--- !u!1 &8218677543341918213 stripped
GameObject:
  m_CorrespondingSourceObject: {fileID: 1128758269040250, guid: f88c6ad57910d8648807bcf0c131f49d,
    type: 3}
  m_PrefabInstance: {fileID: 8217548935448354431}
  m_PrefabAsset: {fileID: 0}
